    {"data": [
        {
            "id": 163001,
            "common_name": "Bread and cheese",
            "slug": "paullinia-pinnata",
            "scientific_name": "Paullinia pinnata",
            "year": 1753,
            "bibliography": "Sp. Pl.: 366 (1753)",
            "author": "L.",
            "status": "accepted",
            "rank": "species",
            "family_common_name": "Soapberry family",
            "genus_id": 5168,
            "image_url": "https://bs.plantnet.org/image/o/63b5556bfe12ed7da0812e032294aab991058d05",
            "synonyms": [
                "Tondin surinamensium",
                "Paullinia grandiflora",
                "Cururu pinnata",
                "Paullinia angusta",
                "Paullinia pendulifolia"
            ],
            "genus": "Paullinia",
            "family": "Sapindaceae",
            "links": {
                "self": "/api/v1/species/paullinia-pinnata",
                "plant": "/api/v1/plants/paullinia-pinnata",
                "genus": "/api/v1/genus/paullinia"
            }
        },
        {
            "id": 163000,
            "common_name": "Moldy bread and cheese",
            "slug": "paullinia-fuscescens",
            "scientific_name": "Paullinia fuscescens",
            "year": 1821,
            "bibliography": "F.W.H.von Humboldt, A.J.A.Bonpland & C.S.Kunth, Nov. Gen. Sp. 5: 120 (1821)",
            "author": "Kunth",
            "status": "accepted",
            "rank": "species",
            "family_common_name": "Soapberry family",
            "genus_id": 5168,
            "image_url": null,
            "synonyms": [
                "Serjania pubescens",
                "Paullinia micropterygia",
                "Paullinia velutina",
                "Paullinia fuscescens var. glabrata",
                "Paullinia fusca",
                "Paullinia fuscescens f. velutina",
                "Paullinia pubescens"
            ],
            "genus": "Paullinia",
            "family": "Sapindaceae",
            "links": {
                "self": "/api/v1/species/paullinia-fuscescens",
                "plant": "/api/v1/plants/paullinia-fuscescens",
                "genus": "/api/v1/genus/paullinia"
            }
        },
        {
            "id": 615353,
            "common_name": "Soapwood",
            "slug": "abarema-jupunba",
            "scientific_name": "Abarema jupunba",
            "year": 1936,
            "bibliography": "Ann. New York Acad. Sci. 35: 126 (1936)",
            "author": "(Willd.) Britton & Killip",
            "status": "accepted",
            "rank": "species",
            "family_common_name": "Pea family",
            "genus_id": 12825,
            "image_url": "https://bs.floristic.org/image/o/f95a6a91f4df8cef739dfd534131464cf10461f5",
            "synonyms": [
                "Pithecellobium jupunba",
                "Acacia jupunba",
                "Pithecellobium micradenium",
                "Pithecellobium brongniartii",
                "Feuilleea micradenia",
                "Feuilleea jupunba",
                "Jupunba jupunba",
                "Mimosa jupunba",
                "Abarema jupunba var. trapezifolia",
                "Mimosa vaga",
                "Abarema trapezifolia",
                "Jupunba trapezifolia",
                "Mimosa atakta",
                "Inga trapezifolia",
                "Mimosa trapezifolia",
                "Pithecellobium benthamianum",
                "Pithecellobium trapezifolium",
                "Pithecellobium vagum",
                "Acacia trapezoides"
            ],
            "genus": "Abarema",
            "family": "Fabaceae",
            "links": {
                "self": "/api/v1/species/abarema-jupunba",
                "plant": "/api/v1/plants/abarema-jupunba",
                "genus": "/api/v1/genus/abarema"
            }
        },
        {
            "id": 157552,
            "common_name": "Adanson's monstera",
            "slug": "monstera-adansonii",
            "scientific_name": "Monstera adansonii",
            "year": 1830,
            "bibliography": "Wiener Z. Kunst 4: 1028 (1830)",
            "author": "Schott",
            "status": "accepted",
            "rank": "species",
            "family_common_name": "Arum family",
            "genus_id": 4700,
            "image_url": "https://bs.plantnet.org/image/o/dcb4298d9abfa3a5adb1d2673e3280e571a41c92",
            "synonyms": [
                "Calla dracontium",
                "Monstera pinnatifida",
                "Monstera jacquini",
                "Dracontium pertusum",
                "Calla pertusa",
                "Monstera protensa",
                "Monstera pertusa f. jacquinii",
                "Monstera adansonii var. adansonii",
                "Monstera imrayana",
                "Monstera macrophylla",
                "Monstera pertusa var. jacquinii",
                "Monstera jacquinii",
                "Monstera seemannii"
            ],
            "genus": "Monstera",
            "family": "Araceae",
            "links": {
                "self": "/api/v1/species/monstera-adansonii",
                "plant": "/api/v1/plants/monstera-adansonii",
                "genus": "/api/v1/genus/monstera"
            }
        },
        {
            "id": 167380,
            "common_name": "Catclaw blackbead",
            "slug": "pithecellobium-unguis-cati",
            "scientific_name": "Pithecellobium unguis-cati",
            "year": 1844,
            "bibliography": "London J. Bot. 3: 200 (1844)",
            "author": "(L.) Benth.",
            "status": "accepted",
            "rank": "species",
            "family_common_name": "Pea family",
            "genus_id": 216,
            "image_url": "https://bs.plantnet.org/image/o/581375ac34bb58411ee52109e39f216457c19424",
            "synonyms": [
                "Pithecellobium guadalupense",
                "Inga microphylla",
                "Pithecellobium paniculatum",
                "Pithecellobium saxosum",
                "Inga unguis-cati",
                "Zygia guadalupensis",
                "Pithecellobium pulchellum",
                "Zygia unguis-cati",
                "Pithecellobium seleri",
                "Inga felina",
                "Inga guadalupensis",
                "Spiroloba unguis",
                "Mimosa unguis-cati",
                "Mimosa guadalupensis",
                "Feuilleea unguis-cati var. latifolia",
                "Feuilleea unguis-cati",
                "Pithecellobium guaricense",
                "Pithecellobium microchlamys",
                "Pithecellobium flavovirens"
            ],
            "genus": "Pithecellobium",
            "family": "Fabaceae",
            "links": {
                "self": "/api/v1/species/pithecellobium-unguis-cati",
                "plant": "/api/v1/plants/pithecellobium-unguis-cati",
                "genus": "/api/v1/genus/pithecellobium"
            }
        },
        {
            "id": 1108587,
            "common_name": "Italian cypress",
            "slug": "serjania-rhombea",
            "scientific_name": "Serjania rhombea",
            "year": 1875,
            "bibliography": "Monogr. Serjania: 324 (1875)",
            "author": "Radlk.",
            "status": "accepted",
            "rank": "species",
            "family_common_name": "Soapberry family",
            "genus_id": 6171,
            "image_url": "https://bs.plantnet.org/image/o/29680366eda0c23aea864a0e99ce22c8dc790b7d",
            "synonyms": [
                "Serjania microcephala"
            ],
            "genus": "Serjania",
            "family": "Sapindaceae",
            "links": {
                "self": "/api/v1/species/serjania-rhombea",
                "plant": "/api/v1/plants/serjania-rhombea",
                "genus": "/api/v1/genus/serjania"
            }
        },
        {
            "id": 157554,
            "common_name": "Tarovine",
            "slug": "monstera-deliciosa",
            "scientific_name": "Monstera deliciosa",
            "year": 1849,
            "bibliography": "Vidensk. Meddel. Naturhist. Foren. Kjøbenhavn 1: 19 (1849)",
            "author": "Liebm.",
            "status": "accepted",
            "rank": "species",
            "family_common_name": "Arum family",
            "genus_id": 4700,
            "image_url": "https://bs.plantnet.org/image/o/e0526a4477c3b1b2c0b21e79d3ad563748a7ca4d",
            "synonyms": [
                "Philodendron pertusum",
                "Monstera lennea",
                "Monstera deliciosa var. borsigiana",
                "Monstera borsigiana",
                "Monstera tacanaensis",
                "Tornelia fragrans",
                "Monstera deliciosa var. sierrana",
                "Philodendron anatomicum"
            ],
            "genus": "Monstera",
            "family": "Araceae",
            "links": {
                "self": "/api/v1/species/monstera-deliciosa",
                "plant": "/api/v1/plants/monstera-deliciosa",
                "genus": "/api/v1/genus/monstera"
            }
        },
        {
            "id": 163002,
            "common_name": null,
            "slug": "paullinia-plumieri",
            "scientific_name": "Paullinia plumieri",
            "year": 1862,
            "bibliography": "Ann. Sci. Nat., Bot., sér. 4, 18: 360 (1862)",
            "author": "Triana & Planch.",
            "status": "accepted",
            "rank": "species",
            "family_common_name": "Soapberry family",
            "genus_id": 5168,
            "image_url": null,
            "synonyms": [],
            "genus": "Paullinia",
            "family": "Sapindaceae",
            "links": {
                "self": "/api/v1/species/paullinia-plumieri",
                "plant": "/api/v1/plants/paullinia-plumieri",
                "genus": "/api/v1/genus/paullinia"
            }
        },
        {
            "id": 154366,
            "common_name": "Common mallow",
            "slug": "malva-neglecta",
            "scientific_name": "Malva neglecta",
            "year": 1824,
            "bibliography": "Syll. Pl. Nov. 1: 140 (1824)",
            "author": "Wallr.",
            "status": "accepted",
            "rank": "species",
            "family_common_name": "Mallow family",
            "genus_id": 465,
            "image_url": "https://bs.plantnet.org/image/o/15264aa4e299c0a417c8dbae41c77ed8a3645800",
            "synonyms": [
                "Malva orbiculata",
                "Malva fruticans",
                "Malva salvitellensis"
            ],
            "genus": "Malva",
            "family": "Malvaceae",
            "links": {
                "self": "/api/v1/species/malva-neglecta",
                "plant": "/api/v1/plants/malva-neglecta",
                "genus": "/api/v1/genus/malva"
            }
        },
        {
            "id": 154376,
            "common_name": "High mallow",
            "slug": "malva-sylvestris",
            "scientific_name": "Malva sylvestris",
            "year": 1753,
            "bibliography": "Sp. Pl.: 689 (1753)",
            "author": "L.",
            "status": "accepted",
            "rank": "species",
            "family_common_name": "Mallow family",
            "genus_id": 465,
            "image_url": "https://bs.plantnet.org/image/o/d0f29171be3a440bb2f18a287efd255cbd944810",
            "synonyms": [
                "Malva sylvestris var. mauritiana",
                "Malva mauritiana",
                "Malva martrinii",
                "Malva albiflora",
                "Malva polymorpha",
                "Malva grossheimii",
                "Malva gymnocarpa",
                "Malva obtusa",
                "Malva elata",
                "Malva plebeia",
                "Malva equina",
                "Malva pumila",
                "Malva erevaniana",
                "Althaea vulgaris",
                "Malva longilobata",
                "Malva acutiloba",
                "Malva vulgaris",
                "Malva lucida",
                "Malva altissima",
                "Malva vivianiana",
                "Malva ambigua",
                "Malva orientalis",
                "Malva glabra",
                "Althaea godronii",
                "Malva recta",
                "Malva racemosa",
                "Malva tomentella",
                "Althaea mauritiana",
                "Malva aragonensis",
                "Malva sylvestris subsp. mauritiana"
            ],
            "genus": "Malva",
            "family": "Malvaceae",
            "links": {
                "self": "/api/v1/species/malva-sylvestris",
                "plant": "/api/v1/plants/malva-sylvestris",
                "genus": "/api/v1/genus/malva"
            }
        },
        {
            "id": 138663,
            "common_name": "Yellow spring bedstraw",
            "slug": "galium-verum",
            "scientific_name": "Galium verum",
            "year": 1753,
            "bibliography": "Sp. Pl.: 107 (1753)",
            "author": "L.",
            "status": "accepted",
            "rank": "species",
            "family_common_name": "Madder family",
            "genus_id": 2120,
            "image_url": "https://bs.plantnet.org/image/o/a93b14df757eb9476e85e3388cea99649b0a9d1b",
            "synonyms": [
                "Rubia vera",
                "Asterophyllum galium",
                "Galium floridum",
                "Galium verum subsp. euverum",
                "Galium verum var. verum",
                "Galium wettsteinii",
                "Galium tomentellum",
                "Galium pallidiflorum",
                "Galium verum f. trichanthum",
                "Galium minimum",
                "Galium minutum",
                "Galium pentandrum",
                "Galium pseudoverum",
                "Galium verum f. puberulum",
                "Galium squarrosum",
                "Galium sublutaeum",
                "Galium verum subsp. maritimum",
                "Galium approximatum",
                "Galium luteoverticillatum",
                "Galium gironae",
                "Galium trichophyllum",
                "Galium glabratum",
                "Galium atropatanum",
                "Galium ruthenicum",
                "Galium affine",
                "Galium officinale",
                "Galium verum f. subpubescens",
                "Galium poligamum",
                "Galium bracteolatum",
                "Galium mauryi",
                "Galium tenderiense",
                "Galium luteum",
                "Galium tuberculatum",
                "Galium leonis",
                "Galium verosimile",
                "Galium praecox",
                "Galium caucasicum",
                "Galium densiflorum"
            ],
            "genus": "Galium",
            "family": "Rubiaceae",
            "links": {
                "self": "/api/v1/species/galium-verum",
                "plant": "/api/v1/plants/galium-verum",
                "genus": "/api/v1/genus/galium"
            }
        },
        {
            "id": 125328,
            "common_name": "Crookneck squash",
            "slug": "cucurbita-moschata",
            "scientific_name": "Cucurbita moschata",
            "year": 1786,
            "bibliography": "Ess. Hist. Nat. Courges: 7 (1786)",
            "author": "Duchesne",
            "status": "accepted",
            "rank": "species",
            "family_common_name": "Cucumber family",
            "genus_id": 2165,
            "image_url": "https://bs.plantnet.org/image/o/1d4ec9317d0311268495af142518d1704b1e329e",
            "synonyms": [
                "Cucurbita moschata var. colombiana",
                "Cucurbita moschata var. magna",
                "Pepo moschatus",
                "Pepo macrocarpus",
                "Pepo indicus",
                "Cucurbita moschata var. claviformis",
                "Cucurbita colombiana",
                "Cucurbita hippopera",
                "Cucurbita moschata var. depressa",
                "Cucurbita macrocarpa",
                "Cucurbita meloniformis",
                "Gymnopetalum calyculatum",
                "Pepo eximius",
                "Cucurbita moschata var. meloniformis",
                "Pepo moschata",
                "Cucurbita moschata var. toonas"
            ],
            "genus": "Cucurbita",
            "family": "Cucurbitaceae",
            "links": {
                "self": "/api/v1/species/cucurbita-moschata",
                "plant": "/api/v1/plants/cucurbita-moschata",
                "genus": "/api/v1/genus/cucurbita"
            }
        },
        {
            "id": 260263,
            "common_name": "Cheerful sunflower",
            "slug": "helianthus-x-laetiflorus",
            "scientific_name": "Helianthus × laetiflorus",
            "year": 1807,
            "bibliography": "Syn. Pl. 2: 476 (1807)",
            "author": "Pers.",
            "status": "accepted",
            "rank": "hybrid",
            "family_common_name": "Aster family",
            "genus_id": 978,
            "image_url": "https://bs.plantnet.org/image/o/a292e03e2dcc5c15de0d39e99cf205b51cd1898f",
            "synonyms": [
                "Helianthus × superbus",
                "Helianthus × scaberrimus",
                "Helianthus × atrorubens",
                "Helianthus × severus",
                "Helianthus × tricuspis",
                "Helianthus laetiflorus var. laetiflorus"
            ],
            "genus": "Helianthus",
            "family": "Asteraceae",
            "links": {
                "self": "/api/v1/species/helianthus-x-laetiflorus",
                "plant": "/api/v1/plants/helianthus-%C3%97-laetiflorus",
                "genus": "/api/v1/genus/helianthus"
            }
        },
        {
            "id": 1053034,
            "common_name": "Chess-apple",
            "slug": "aria-edulis",
            "scientific_name": "Aria edulis",
            "year": 1847,
            "bibliography": "Fam. Nat. Syn. Monogr. 3: 124 (1847)",
            "author": "M.Roem.",
            "status": "accepted",
            "rank": "species",
            "family_common_name": "Rose family",
            "genus_id": 16707,
            "image_url": "https://bs.plantnet.org/image/o/e779fcad27c97201ef19352607eafbb181d6aed5",
            "synonyms": [
                "Sorbus alpina",
                "Sorbus aria",
                "Pyrus alpina",
                "Sorbus huljakii",
                "Sorbus carpatica",
                "Sorbus oblonga",
                "Mespilus aria",
                "Aria tomentosa",
                "Lazarolus aria",
                "Sorbus edulis",
                "Pyrenia aria",
                "Azarolus aria",
                "Sorbus pallidifolia",
                "Aria alpina",
                "Sorbus arioides",
                "Sorbus bellojocensis",
                "Crataegus aria",
                "Sorbus sphaerocarpa",
                "Sorbus aria var. semi-incisa",
                "Sorbus globulifera",
                "× Sorbaronia alpina",
                "Aronia alpina",
                "× Aroniaria alpina",
                "Pyrus aria",
                "Pyrus edulis",
                "Aria nivea",
                "Sorbus controversa",
                "Sorbus arvernensis",
                "Sorbus ararica",
                "Hahnia aria",
                "Sorbus budaiana",
                "Sorbus turbinata",
                "Sorbus reverchonii"
            ],
            "genus": "Aria",
            "family": "Rosaceae",
            "links": {
                "self": "/api/v1/species/aria-edulis",
                "plant": "/api/v1/plants/aria-edulis",
                "genus": "/api/v1/genus/aria"
            }
        },
        {
            "id": 112971,
            "common_name": "Hairy chess",
            "slug": "bromus-commutatus",
            "scientific_name": "Bromus commutatus",
            "year": 1806,
            "bibliography": "Fl. Germ.: 353 (1806)",
            "author": "Schrad.",
            "status": "accepted",
            "rank": "species",
            "family_common_name": "Grass family",
            "genus_id": 1099,
            "image_url": null,
            "synonyms": [
                "Bromus secalinus subsp. commutatus",
                "Forasaccus commutatus",
                "Brachypodium commutatum",
                "Serrafalcus commutatus",
                "Bromus secalinus var. gladewitzii",
                "Bromus commutatus var. apricorum",
                "Bromus commutatus f. perglaber",
                "Bromus commutatus var. pubens",
                "Bromus gaudinii",
                "Bromus scabratus",
                "Bromus diffusus",
                "Bromus japonicus f. diffusus",
                "Bromus agrarius"
            ],
            "genus": "Bromus",
            "family": "Poaceae",
            "links": {
                "self": "/api/v1/species/bromus-commutatus",
                "plant": "/api/v1/plants/bromus-commutatus",
                "genus": "/api/v1/genus/bromus"
            }
        },
        {
            "id": 180514,
            "common_name": "Christmas-cheer",
            "slug": "sedum-rubrotinctum",
            "scientific_name": "Sedum rubrotinctum",
            "year": null,
            "bibliography": "Cact. Succ. J. (Los Angeles) 20:82.  1948",
            "author": "R.T.Clausen",
            "status": "accepted",
            "rank": "species",
            "family_common_name": "Stonecrop family",
            "genus_id": 2395,
            "image_url": "https://bs.plantnet.org/image/o/54846e9b46ce55d78211dd357216d6ee6ad39d78",
            "synonyms": [],
            "genus": "Sedum",
            "family": "Crassulaceae",
            "links": {
                "self": "/api/v1/species/sedum-rubrotinctum",
                "plant": "/api/v1/plants/sedum-rubrotinctum",
                "genus": "/api/v1/genus/sedum"
            }
        },
        {
            "id": 112804,
            "common_name": "Chilean chess",
            "slug": "bromus-berteroanus",
            "scientific_name": "Bromus berteroanus",
            "year": 1836,
            "bibliography": "Mem. Reale Accad. Sci. Torino 39: 25 (1836)",
            "author": "Colla",
            "status": "accepted",
            "rank": "species",
            "family_common_name": "Grass family",
            "genus_id": 1099,
            "image_url": null,
            "synonyms": [
                "Bromus bicuspis",
                "Bromus trinii var. pallidiflorus",
                "Trisetum trinii var. pallidiflorus",
                "Bromus trinii var. excelsus",
                "Bromus trinii",
                "Trisetobromus hirtus",
                "Trisetum litorale",
                "Avena paupercula",
                "Bromus leyboldtii",
                "Bromus trinii var. strictus",
                "Bromus trinii var. micrantherus",
                "Bromus trinii var. manicatus",
                "Trisetum barbatum var. major",
                "Trisetum trinii var. effusum",
                "Trisetum trinii var. majus",
                "Trisetum trinii var. manicatum",
                "Trisetum trinii var. micrantherum",
                "Bromus barbatoides var. sulcatus",
                "Trisetum trinii var. strictum",
                "Bromus barbatoides",
                "Danthonia pseudospicata",
                "Trisetum trinii",
                "Trisetum trinii var. litorale",
                "Bromus trinii var. effusus",
                "Bromus berterianus"
            ],
            "genus": "Bromus",
            "family": "Poaceae",
            "links": {
                "self": "/api/v1/species/bromus-berteroanus",
                "plant": "/api/v1/plants/bromus-berteroanus",
                "genus": "/api/v1/genus/bromus"
            }
        },
        {
            "id": 159446,
            "common_name": "Ogeechee tupelo",
            "slug": "nyssa-ogeche",
            "scientific_name": "Nyssa ogeche",
            "year": 1785,
            "bibliography": "Arbust. Amer.: 97 (1785)",
            "author": "W.Bartram ex Marshall",
            "status": "accepted",
            "rank": "species",
            "family_common_name": null,
            "genus_id": 4916,
            "image_url": "https://bs.plantnet.org/image/o/7f2491649a3fbfbc8204fba399dcd0c72924f228",
            "synonyms": [
                "Nyssa acuminata",
                "Nyssa oye-chee",
                "Nyssa capitata",
                "Nyssa coccinea",
                "Nyssa montana",
                "Nyssa ogeche var. acuminata",
                "Nyssa candicans"
            ],
            "genus": "Nyssa",
            "family": "Nyssaceae",
            "links": {
                "self": "/api/v1/species/nyssa-ogeche",
                "plant": "/api/v1/plants/nyssa-ogeche",
                "genus": "/api/v1/genus/nyssa"
            }
        },
        {
            "id": 820736,
            "common_name": null,
            "slug": "leptospermum-microcarpum",
            "scientific_name": "Leptospermum microcarpum",
            "year": 1923,
            "bibliography": "J. Proc. Roy. Soc. New South Wales 57:126.  1923",
            "author": "Cheel",
            "status": "accepted",
            "rank": "species",
            "family_common_name": "Myrtle family",
            "genus_id": 3930,
            "image_url": "https://d2seqvvyy3b8p2.cloudfront.net/2cf90e7ff33789267a6436732d46b03f.jpg",
            "synonyms": [],
            "genus": "Leptospermum",
            "family": "Myrtaceae",
            "links": {
                "self": "/api/v1/species/leptospermum-microcarpum",
                "plant": "/api/v1/plants/leptospermum-microcarpum",
                "genus": "/api/v1/genus/leptospermum"
            }
        },
        {
            "id": 1095185,
            "common_name": null,
            "slug": "boronia-ruppii",
            "scientific_name": "Boronia ruppii",
            "year": 1928,
            "bibliography": "J. Proc. Roy. Soc. New S. Wales 61: 404 (1927 publ. 1928)",
            "author": "Cheel",
            "status": "accepted",
            "rank": "species",
            "family_common_name": "Rue family",
            "genus_id": 1053,
            "image_url": null,
            "synonyms": [],
            "genus": "Boronia",
            "family": "Rutaceae",
            "links": {
                "self": "/api/v1/species/boronia-ruppii",
                "plant": "/api/v1/plants/boronia-ruppii",
                "genus": "/api/v1/genus/boronia"
            }
        }
    ],
    "links": {
        "self": "/api/v1/plants/search?q=Cheese",
        "first": "/api/v1/plants/search?page=1&q=Cheese",
        "next": "/api/v1/plants/search?page=2&q=Cheese",
        "last": "/api/v1/plants/search?page=12&q=Cheese"
    },
    "meta": {
        "total": 234
    }
    }